Tidy Regression Model: broom
…
Download Rmd

Tidy Regression Model: broom

Humoon

2022-02-25

Data

library(gapminder)
gapminder

# # A tibble: 1,704 x 6
#    country     continent  year lifeExp      pop gdpPercap
#    <fct>       <fct>     <int>   <dbl>    <int>     <dbl>
#  1 Afghanistan Asia       1952    28.8  8425333      779.
#  2 Afghanistan Asia       1957    30.3  9240934      821.
#  3 Afghanistan Asia       1962    32.0 10267083      853.
#  4 Afghanistan Asia       1967    34.0 11537966      836.
#  5 Afghanistan Asia       1972    36.1 13079460      740.
#  6 Afghanistan Asia       1977    38.4 14880372      786.
#  7 Afghanistan Asia       1982    39.9 12881816      978.
#  8 Afghanistan Asia       1987    40.8 13867957      852.
#  9 Afghanistan Asia       1992    41.7 16317921      649.
# 10 Afghanistan Asia       1997    41.8 22227415      635.
# # ... with 1,694 more rows
…
argument()

broom::augment()  fitted values.fitted.resid.se.fit

augment(out)

# # A tibble: 1,704 x 10
#    lifeExp gdpPercap      pop continent .fitted .resid    .hat .sigma .cooksd
#      <dbl>     <dbl>    <int> <fct>       <dbl>  <dbl>   <dbl>  <dbl>   <dbl>
#  1    28.8      779.  8425333 Asia         56.4  -27.6 0.00322   8.34 0.00505
#  2    30.3      821.  9240934 Asia         56.4  -26.1 0.00321   8.34 0.00450
#  3    32.0      853. 10267083 Asia         56.5  -24.5 0.00320   8.35 0.00393
#  4    34.0      836. 11537966 Asia         56.5  -22.4 0.00319   8.35 0.00330
#  5    36.1      740. 13079460 Asia         56.4  -20.3 0.00319   8.35 0.00271
#  6    38.4      786. 14880372 Asia         56.5  -18.0 0.00317   8.36 0.00212
#  7    39.9      978. 12881816 Asia         56.5  -16.7 0.00316   8.36 0.00181
#  8    40.8      852. 13867957 Asia         56.5  -15.7 0.00317   8.36 0.00160
#  9    41.7      649. 16317921 Asia         56.4  -14.7 0.00318   8.36 0.00142
# 10    41.8      635. 22227415 Asia         56.4  -14.7 0.00314   8.36 0.00139
# # ... with 1,694 more rows, and 1 more variable: .std.resid <dbl>
…
